"X_coord","Y_coord","block","type","ID","depth","depth1","di","MSOC","vsoc1","cum_soc"
504493.189,252635.545,"1","PA","1","1","5",10,85.62038819918,85.62038819918,85.62038819918
504493.189,252635.545,"1","PA","1","2","15",10,59.0186969064,59.0186969064,144.63908510558
504493.189,252635.545,"1","PA","1","3","30",20,52.5835183186133,52.5835183186133,197.222603424193
504493.189,252635.545,"1","PA","1","4","50",20,58.5125583491667,58.5125583491667,255.73516177336
504493.189,252635.545,"1","PA","1","5","83",45,32.699617036875,32.699617036875,288.434778810235
504493.189,252635.545,"1","PA","1","6","128",45,28.490933188125,28.490933188125,316.92571199836
504523.189,252635.545,"1","PA","2","1","5",10,59.2417127474667,59.2417127474667,59.2417127474667
504523.189,252635.545,"1","PA","2","2","15",10,30.00679873797,30.00679873797,89.2485114854367
504523.189,252635.545,"1","PA","2","3","30",20,28.6601821425867,28.6601821425867,117.908693628023
504523.189,252635.545,"1","PA","2","4","50",20,14.4516164904,14.4516164904,132.360310118423
504523.189,252635.545,"1","PA","2","5","83",45,35.9266145697,35.9266145697,168.286924688123
504523.189,252635.545,"1","PA","2","6","128",45,27.8289633996,27.8289633996,196.115888087723
504493.189,252605.545,"1","PA","3","1","5",10,68.4222436457567,68.4222436457567,68.4222436457567
504493.189,252605.545,"1","PA","3","2","15",10,33.4197905695,33.4197905695,101.842034215257
504493.189,252605.545,"1","PA","3","3","30",20,53.1569977972934,53.1569977972934,154.99903201255
504493.189,252605.545,"1","PA","3","4","50",20,18.406568206,18.406568206,173.40560021855
504493.189,252605.545,"1","PA","3","5","83",45,33.02979819555,33.02979819555,206.4353984141
504493.189,252605.545,"1","PA","3","6","128",45,37.31312057265,37.31312057265,243.74851898675
504583.189,252605.545,"1","PA","4","1","5",10,61.9755384521,61.9755384521,61.9755384521
504583.189,252605.545,"1","PA","4","2","15",10,27.13695889188,27.13695889188,89.11249734398
504583.189,252605.545,"1","PA","4","3","30",20,15.94581209156,15.94581209156,105.05830943554
504583.189,252605.545,"1","PA","4","4","50",20,17.97762664,17.97762664,123.03593607554
504583.189,252605.545,"1","PA","4","5","83",45,29.86039790712,29.86039790712,152.89633398266
504583.189,252605.545,"1","PA","4","6","128",45,22.8113135091,22.8113135091,175.70764749176
504493.189,252575.545,"1","PA","5","1","5",10,77.0809152202567,77.0809152202567,77.0809152202567
504493.189,252575.545,"1","PA","5","2","15",10,37.0691904908667,37.0691904908667,114.150105711123
504493.189,252575.545,"1","PA","5","3","30",20,24.4649562417867,24.4649562417867,138.61506195291
504493.189,252575.545,"1","PA","5","4","50",20,18.71040384642,18.71040384642,157.32546579933
504493.189,252575.545,"1","PA","5","5","83",45,30.01527732789,30.01527732789,187.34074312722
504493.189,252575.545,"1","PA","5","6","128",45,30.309941756835,30.309941756835,217.650684884055
504583.189,252575.545,"1","PA","8","1","5",10,53.1794734166,53.1794734166,53.1794734166
504583.189,252575.545,"1","PA","8","2","15",10,33.25972151762,33.25972151762,86.43919493422
504583.189,252575.545,"1","PA","8","3","30",20,38.359345168,38.359345168,124.79854010222
504583.189,252575.545,"1","PA","8","4","50",20,20.2101592915467,20.2101592915467,145.008699393767
504583.189,252575.545,"1","PA","8","5","83",45,23.05804781607,23.05804781607,168.066747209837
504583.189,252575.545,"1","PA","8","6","128",45,20.99569320651,20.99569320651,189.062440416347
504493.189,252545.545,"1","PA","9","1","5",10,60.6542641891034,60.6542641891034,60.6542641891034
504493.189,252545.545,"1","PA","9","2","15",10,37.2351650489467,37.2351650489467,97.8894292380501
504493.189,252545.545,"1","PA","9","3","30",20,38.4453270066,38.4453270066,136.33475624465
504493.189,252545.545,"1","PA","9","4","50",20,27.6079449356633,27.6079449356633,163.942701180313
504493.189,252545.545,"1","PA","9","5","83",45,25.66400314392,25.66400314392,189.606704324233
504493.189,252545.545,"1","PA","9","6","128",45,24.2968977,24.2968977,213.903602024233
504553.189,252545.545,"1","PA","10","1","5",10,44.5003942548417,44.5003942548417,44.5003942548417
504553.189,252545.545,"1","PA","10","2","15",10,28.6505542059,28.6505542059,73.1509484607417
504553.189,252545.545,"1","PA","10","3","30",20,40.7185359704533,40.7185359704533,113.869484431195
504553.189,252545.545,"1","PA","10","4","50",20,15.0418995275,15.0418995275,128.911383958695
504553.189,252545.545,"1","PA","10","5","83",45,22.27185567,22.27185567,151.183239628695
504553.189,252545.545,"1","PA","10","6","128",45,32.45291287875,32.45291287875,183.636152507445
504583.189,252545.545,"1","PA","11","1","5",10,56.66318983322,56.66318983322,56.66318983322
504583.189,252545.545,"1","PA","11","2","15",10,34.23638104509,34.23638104509,90.89957087831
504583.189,252545.545,"1","PA","11","3","30",20,38.42117087312,38.42117087312,129.32074175143
504583.189,252545.545,"1","PA","11","4","50",20,17.0191239712,17.0191239712,146.33986572263
504583.189,252545.545,"1","PA","11","5","83",45,21.9089395161,21.9089395161,168.24880523873
504583.189,252545.545,"1","PA","11","6","128",45,32.76532170015,32.76532170015,201.01412693888
504523.189,252515.545,"1","PA","12","1","5",10,62.9045886352333,62.9045886352333,62.9045886352333
504523.189,252515.545,"1","PA","12","2","15",10,34.1698031862267,34.1698031862267,97.07439182146
504523.189,252515.545,"1","PA","12","3","30",20,64.3902689503,64.3902689503,161.46466077176
504523.189,252515.545,"1","PA","12","4","50",20,19.6638276078933,19.6638276078933,181.128488379653
504523.189,252515.545,"1","PA","12","5","83",45,30.66945241896,30.66945241896,211.797940798613
504523.189,252515.545,"1","PA","12","6","128",45,20.94461547864,20.94461547864,232.742556277253
504493.189,252485.545,"1","PA","14","1","5",10,39.933966204,39.933966204,39.933966204
504493.189,252485.545,"1","PA","14","2","15",10,25.2503884770667,25.2503884770667,65.1843546810667
504493.189,252485.545,"1","PA","14","3","30",20,32.3568562154267,32.3568562154267,97.5412108964934
504493.189,252485.545,"1","PA","14","4","50",20,16.52661369912,16.52661369912,114.067824595613
504493.189,252485.545,"1","PA","14","5","83",45,24.65900492706,24.65900492706,138.726829522673
504493.189,252485.545,"1","PA","14","6","128",45,37.936134621,37.936134621,176.662964143673
504523.189,252485.545,"1","PA","15","1","5",10,48.59377935336,48.59377935336,48.59377935336
504523.189,252485.545,"1","PA","15","2","15",10,32.2365246172,32.2365246172,80.83030397056
504523.189,252485.545,"1","PA","15","3","30",20,46.5334064727467,46.5334064727467,127.363710443307
504523.189,252485.545,"1","PA","15","4","50",20,12.3803052352,12.3803052352,139.744015678507
504523.189,252485.545,"1","PA","15","5","83",45,18.0447532146,18.0447532146,157.788768893107
504523.189,252485.545,"1","PA","15","6","128",45,9.90978439395,9.90978439395,167.698553287057
504493.189,252455.545,"1","PA","16","1","5",10,47.35767745044,47.35767745044,47.35767745044
504493.189,252455.545,"1","PA","16","2","15",10,26.0466008705467,26.0466008705467,73.4042783209867
504493.189,252455.545,"1","PA","16","3","30",20,26.7845610817067,26.7845610817067,100.188839402693
504493.189,252455.545,"1","PA","16","4","50",20,11.3235895778133,11.3235895778133,111.512428980507
504493.189,252455.545,"1","PA","16","5","83",45,32.40792547776,32.40792547776,143.920354458267
504493.189,252455.545,"1","PA","16","6","128",45,43.9578911604,43.9578911604,187.878245618667
504553.189,252455.545,"1","PA","17","1","5",10,44.08484335536,44.08484335536,44.08484335536
504553.189,252455.545,"1","PA","17","2","15",10,23.5921212860667,23.5921212860667,67.6769646414267
504553.189,252455.545,"1","PA","17","3","30",20,27.511050003,27.511050003,95.1880146444267
504553.189,252455.545,"1","PA","17","4","50",20,17.5329690428333,17.5329690428333,112.72098368726
504553.189,252455.545,"1","PA","17","5","83",45,21.484803579045,21.484803579045,134.205787266305
504553.189,252455.545,"1","PA","17","6","128",45,22.906148401995,22.906148401995,157.1119356683
504583.189,252455.545,"1","PA","18","1","5",10,47.44255540622,47.44255540622,47.44255540622
504583.189,252455.545,"1","PA","18","2","15",10,28.9923068358933,28.9923068358933,76.4348622421133
504583.189,252455.545,"1","PA","18","3","30",20,46.7918824992883,46.7918824992883,123.226744741402
504583.189,252455.545,"1","PA","18","4","50",20,13.10079736218,13.10079736218,136.327542103582
504583.189,252455.545,"1","PA","18","5","83",45,38.693998013715,38.693998013715,175.021540117297
504583.189,252455.545,"1","PA","18","6","128",45,53.781481111545,53.781481111545,228.803021228842
504493.189,252425.545,"1","PA","19","1","5",10,46.4694611803233,46.4694611803233,46.4694611803233
504493.189,252425.545,"1","PA","19","2","15",10,22.04798430958,22.04798430958,68.5174454899033
504493.189,252425.545,"1","PA","19","3","30",20,31.41288726624,31.41288726624,99.9303327561433
504493.189,252425.545,"1","PA","19","4","50",20,10.03423471344,10.03423471344,109.964567469583
504493.189,252425.545,"1","PA","19","5","83",45,20.7214577703,20.7214577703,130.686025239883
504493.189,252425.545,"1","PA","19","6","128",45,25.65988177536,25.65988177536,156.345907015243
504523.189,252425.545,"1","PA","20","1","5",10,46.9743382848,46.9743382848,46.9743382848
504523.189,252425.545,"1","PA","20","2","15",10,29.44440569871,29.44440569871,76.41874398351
504523.189,252425.545,"1","PA","20","3","30",20,40.47758031544,40.47758031544,116.89632429895
504523.189,252425.545,"1","PA","20","4","50",20,42.7685834284445,42.7685834284445,159.664907727395
504523.189,252425.545,"1","PA","20","5","83",45,25.682845164,25.682845164,185.347752891394
504523.189,252425.545,"1","PA","20","6","128",45,21.256560414,21.256560414,206.604313305394
504373.189,252485.545,"1","PA","21","1","5",10,59.1036473219536,59.1036473219536,59.1036473219536
504373.189,252485.545,"1","PA","21","2","15",10,21.7592955843787,21.7592955843787,80.8629429063323
504373.189,252485.545,"1","PA","21","3","30",20,33.5713920190649,33.5713920190649,114.434334925397
504373.189,252485.545,"1","PA","21","4","50",20,11.7183465521733,11.7183465521733,126.152681477571
504373.189,252485.545,"1","PA","21","5","83",45,17.99203275579,17.99203275579,144.144714233361
504373.189,252485.545,"1","PA","21","6","128",45,12.940893225075,12.940893225075,157.085607458436
504313.189,252455.545,"1","PA","22","1","5",10,64.6247905921533,64.6247905921533,64.6247905921533
504313.189,252455.545,"1","PA","22","2","15",10,32.4565789927167,32.4565789927167,97.08136958487
504313.189,252455.545,"1","PA","22","3","30",20,49.0387677808133,49.0387677808133,146.120137365683
504313.189,252455.545,"1","PA","22","4","50",20,10.40570463168,10.40570463168,156.525841997363
504313.189,252455.545,"1","PA","22","5","83",45,19.23447875508,19.23447875508,175.760320752443
504313.189,252455.545,"1","PA","22","6","128",45,14.14252135548,14.14252135548,189.902842107923
504343.189,252455.545,"1","PA","23","1","5",10,58.5815851588233,58.5815851588233,58.5815851588233
504343.189,252455.545,"1","PA","23","2","15",10,27.8061856581,27.8061856581,86.3877708169233
504343.189,252455.545,"1","PA","23","3","30",20,27.33334772698,27.33334772698,113.721118543903
504343.189,252455.545,"1","PA","23","4","50",20,9.54673960613333,9.54673960613333,123.267858150037
504343.189,252455.545,"1","PA","23","5","83",45,24.9263436,24.9263436,148.194201750037
504343.189,252455.545,"1","PA","23","6","128",45,21.9117858,21.9117858,170.105987550037
504403.189,252455.545,"1","PA","24","1","5",10,65.4762908648833,65.4762908648833,65.4762908648833
504403.189,252455.545,"1","PA","24","2","15",10,29.87850464398,29.87850464398,95.3547955088633
504403.189,252455.545,"1","PA","24","3","30",20,36.07023836544,36.07023836544,131.425033874303
504403.189,252455.545,"1","PA","24","4","50",20,22.4651082394029,22.4651082394029,153.890142113706
504403.189,252455.545,"1","PA","24","5","83",45,33.1040001189109,33.1040001189109,186.994142232617
504403.189,252455.545,"1","PA","24","6","128",45,27.4016750546289,27.4016750546289,214.395817287246
504343.189,252425.545,"1","PA","26","1","5",10,66.7221658900833,66.7221658900833,66.7221658900833
504343.189,252425.545,"1","PA","26","2","15",10,31.9029018291733,31.9029018291733,98.6250677192566
504343.189,252425.545,"1","PA","26","3","30",20,39.389809992,39.389809992,138.014877711257
504343.189,252425.545,"1","PA","26","4","50",20,11.8702671086933,11.8702671086933,149.88514481995
504343.189,252425.545,"1","PA","26","5","83",45,20.64485157504,20.64485157504,170.52999639499
504343.189,252425.545,"1","PA","26","6","128",45,21.9963147264,21.9963147264,192.52631112139
504373.189,252425.545,"1","PA","27","1","5",10,58.0876712855,58.0876712855,58.0876712855
504373.189,252425.545,"1","PA","27","2","15",10,26.4320386400533,26.4320386400533,84.5197099255533
504373.189,252425.545,"1","PA","27","3","30",20,37.09530829746,37.09530829746,121.615018223013
504373.189,252425.545,"1","PA","27","4","50",20,11.3236688539333,11.3236688539333,132.938687076947
504373.189,252425.545,"1","PA","27","5","83",45,30.99038906145,30.99038906145,163.929076138397
504373.189,252425.545,"1","PA","27","6","128",45,44.2498729995,44.2498729995,208.178949137897
504403.189,252425.545,"1","PA","28","1","5",10,58.63272433368,58.63272433368,58.63272433368
504403.189,252425.545,"1","PA","28","2","15",10,26.02417730928,26.02417730928,84.65690164296
504403.189,252425.545,"1","PA","28","3","30",20,39.3498102552,39.3498102552,124.00671189816
504403.189,252425.545,"1","PA","28","4","50",20,18.80896163328,18.80896163328,142.81567353144
504403.189,252425.545,"1","PA","28","5","83",45,20.36180041848,20.36180041848,163.17747394992
504403.189,252425.545,"1","PA","28","6","128",45,35.5451652,35.5451652,198.72263914992
504433.189,252425.545,"1","PA","29","1","5",10,47.89455763869,47.89455763869,47.89455763869
504433.189,252425.545,"1","PA","29","2","15",10,29.84154039664,29.84154039664,77.73609803533
504433.189,252425.545,"1","PA","29","3","30",20,44.5629826183533,44.5629826183533,122.299080653683
504433.189,252425.545,"1","PA","29","4","50",20,9.09501251087333,9.09501251087333,131.394093164557
504433.189,252425.545,"1","PA","29","5","83",45,20.189409402435,20.189409402435,151.583502566992
504433.189,252425.545,"1","PA","29","6","128",45,23.981394255,23.981394255,175.564896821992
504305.2053,252382.8402,"1","PA","30","1","5",10,67.46739226296,67.46739226296,67.46739226296
504305.2053,252382.8402,"1","PA","30","2","15",10,31.32922275765,31.32922275765,98.79661502061
504305.2053,252382.8402,"1","PA","30","3","30",20,54.3753829476,54.3753829476,153.17199796821
504305.2053,252382.8402,"1","PA","30","4","50",20,10.4585425733333,10.4585425733333,163.630540541543
504305.2053,252382.8402,"1","PA","30","5","83",45,60.5323146555,60.5323146555,224.162855197043
504305.2053,252382.8402,"1","PA","30","6","128",45,17.95249827,17.95249827,242.115353467043
504343.189,252395.545,"1","PA","31","1","5",10,59.9940750504734,59.9940750504734,59.9940750504734
504343.189,252395.545,"1","PA","31","2","15",10,28.43714180128,28.43714180128,88.4312168517534
504343.189,252395.545,"1","PA","31","3","30",20,50.06898769406,50.06898769406,138.500204545813
504343.189,252395.545,"1","PA","31","4","50",20,16.5105878395533,16.5105878395533,155.010792385367
504343.189,252395.545,"1","PA","31","5","83",45,26.93339922273,26.93339922273,181.944191608097
504343.189,252395.545,"1","PA","31","6","128",45,38.556149193525,38.556149193525,220.500340801622
504373.189,252395.545,"1","PA","32","1","5",10,56.48669025951,56.48669025951,56.48669025951
504373.189,252395.545,"1","PA","32","2","15",10,23.6770794666667,23.6770794666667,80.1637697261767
504373.189,252395.545,"1","PA","32","3","30",20,31.5552889395467,31.5552889395467,111.719058665723
504373.189,252395.545,"1","PA","32","4","50",20,28.1292456346,28.1292456346,139.848304300323
504373.189,252395.545,"1","PA","32","5","83",45,14.66783373,14.66783373,154.516138030323
504373.189,252395.545,"1","PA","32","6","128",45,20.561963235,20.561963235,175.078101265323
504433.189,252395.545,"1","PA","33","1","5",10,71.6353778217083,71.6353778217083,71.6353778217083
504433.189,252395.545,"1","PA","33","2","15",10,32.2216159752167,32.2216159752167,103.856993796925
504433.189,252395.545,"1","PA","33","3","30",20,56.8126659902133,56.8126659902133,160.669659787138
504433.189,252395.545,"1","PA","33","4","50",20,10.6469559675,10.6469559675,171.316615754638
504433.189,252395.545,"1","PA","33","5","83",45,20.562018075,20.562018075,191.878633829638
504433.189,252395.545,"1","PA","33","6","128",45,18.672292125,18.672292125,210.550925954638
504348.3463,252350.3542,"1","PA","34","1","5",10,77.00748274512,77.00748274512,77.00748274512
504348.3463,252350.3542,"1","PA","34","2","15",10,33.84753652293,33.84753652293,110.85501926805
504348.3463,252350.3542,"1","PA","34","3","30",20,49.8867738762,49.8867738762,160.74179314425
504348.3463,252350.3542,"1","PA","34","4","50",20,25.6011268042933,25.6011268042933,186.342919948543
504348.3463,252350.3542,"1","PA","34","5","83",45,18.168450003,18.168450003,204.511369951543
504348.3463,252350.3542,"1","PA","34","6","128",45,17.27757504,17.27757504,221.788944991543
504403.189,252365.545,"1","PA","35","1","5",10,65.0651736073,65.0651736073,65.0651736073
504403.189,252365.545,"1","PA","35","2","15",10,33.93374768076,33.93374768076,98.99892128806
504403.189,252365.545,"1","PA","35","3","30",20,43.4394569717333,43.4394569717333,142.438378259793
504403.189,252365.545,"1","PA","35","4","50",20,8.59554492927333,8.59554492927333,151.033923189067
504403.189,252365.545,"1","PA","35","5","83",45,16.962562695,16.962562695,167.996485884067
504403.189,252365.545,"1","PA","35","6","128",45,18.38318856909,18.38318856909,186.379674453157
504433.189,252365.545,"1","PA","36","1","5",10,68.7771929338667,68.7771929338667,68.7771929338667
504433.189,252365.545,"1","PA","36","2","15",10,38.4245519533033,38.4245519533033,107.20174488717
504433.189,252365.545,"1","PA","36","3","30",20,54.1757826753,54.1757826753,161.37752756247
504433.189,252365.545,"1","PA","36","4","50",20,19.6500758448333,19.6500758448333,181.027603407303
504433.189,252365.545,"1","PA","36","5","83",45,17.502520125,17.502520125,198.530123532303
504433.189,252365.545,"1","PA","36","6","128",45,18.44738625,18.44738625,216.977509782303
504586.7382,252503.1904,"1","PA","37","1","5",10,64.5449142903117,64.5449142903117,64.5449142903117
504586.7382,252503.1904,"1","PA","37","2","15",10,40.6707533614434,40.6707533614434,105.215667651755
504586.7382,252503.1904,"1","PA","37","3","30",20,63.7593145079533,63.7593145079533,168.974982159708
504586.7382,252503.1904,"1","PA","37","4","50",20,22.24666623648,22.24666623648,191.221648396188
504586.7382,252503.1904,"1","PA","37","5","83",45,33.16774957167,33.16774957167,224.389397967858
504586.7382,252503.1904,"1","PA","37","6","128",45,23.12711646,23.12711646,247.516514427858
504373.189,252335.545,"1","PA","38","1","5",10,53.72653791252,53.72653791252,53.72653791252
504373.189,252335.545,"1","PA","38","2","15",10,29.9658335691067,29.9658335691067,83.6923714816267
504373.189,252335.545,"1","PA","38","3","30",20,40.9597335719,40.9597335719,124.652105053527
504373.189,252335.545,"1","PA","38","4","50",20,12.46655726556,12.46655726556,137.118662319087
504373.189,252335.545,"1","PA","38","5","83",45,20.091310753905,20.091310753905,157.209973072992
504373.189,252335.545,"1","PA","38","6","128",45,20.549611540035,20.549611540035,177.759584613027
504433.189,252335.545,"1","PA","39","1","5",10,61.72957267792,61.72957267792,61.72957267792
504433.189,252335.545,"1","PA","39","2","15",10,36.3532600732129,36.3532600732129,98.0828327511329
504433.189,252335.545,"1","PA","39","3","30",20,52.1776122095352,52.1776122095352,150.260444960668
504433.189,252335.545,"1","PA","39","4","50",20,10.7072758168333,10.7072758168333,160.967720777501
504433.189,252335.545,"1","PA","39","5","83",45,18.8971335,18.8971335,179.864854277501
504433.189,252335.545,"1","PA","39","6","128",45,48.5793110202,48.5793110202,228.444165297701
504403.189,252305.545,"1","PA","40","1","5",10,70.5821893314933,70.5821893314933,70.5821893314933
504403.189,252305.545,"1","PA","40","2","15",10,37.04191733942,37.04191733942,107.624106670913
504403.189,252305.545,"1","PA","40","3","30",20,38.76435507576,38.76435507576,146.388461746673
504403.189,252305.545,"1","PA","40","4","50",20,11.94490332402,11.94490332402,158.333365070693
504403.189,252305.545,"1","PA","40","5","83",45,25.572111140745,25.572111140745,183.905476211438
504403.189,252305.545,"1","PA","40","6","128",45,17.807345059455,17.807345059455,201.712821270893
504522.6586,252605.0603,"1","SP","1","1","5",10,43.77342223314,43.77342223314,43.77342223314
504522.6586,252605.0603,"1","SP","1","2","15",10,26.0830035550133,26.0830035550133,69.8564257881533
504522.6586,252605.0603,"1","SP","1","3","30",20,25.5535850423467,25.5535850423467,95.4100108305
504522.6586,252605.0603,"1","SP","1","4","50",20,18.4772421775433,18.4772421775433,113.887253008043
504522.6586,252605.0603,"1","SP","1","5","83",45,33.6279054536888,33.6279054536888,147.515158461732
504522.6586,252605.0603,"1","SP","1","6","128",45,8.9088053175,8.9088053175,156.423963779232
504619.4247,252584.9521,"1","SP","3","1","5",10,53.5484917622117,53.5484917622117,53.5484917622117
504619.4247,252584.9521,"1","SP","3","2","15",10,32.1730680415533,32.1730680415533,85.721559803765
504619.4247,252584.9521,"1","SP","3","3","30",20,41.8809083767333,41.8809083767333,127.602468180498
504619.4247,252584.9521,"1","SP","3","4","50",20,15.2183688331733,15.2183688331733,142.820837013672
504619.4247,252584.9521,"1","SP","3","5","83",45,31.92640709664,31.92640709664,174.747244110312
504619.4247,252584.9521,"1","SP","3","6","128",45,32.59784718636,32.59784718636,207.345091296672
504540.7525,252558.6642,"1","SP","4","1","5",10,47.25789227935,47.25789227935,47.25789227935
504540.7525,252558.6642,"1","SP","4","2","15",10,28.64383491816,28.64383491816,75.90172719751
504540.7525,252558.6642,"1","SP","4","3","30",20,35.2665360638133,35.2665360638133,111.168263261323
504540.7525,252558.6642,"1","SP","4","4","50",20,17.3070124123,17.3070124123,128.475275673623
504540.7525,252558.6642,"1","SP","4","5","83",45,30.029759924775,30.029759924775,158.505035598398
504540.7525,252558.6642,"1","SP","4","6","128",45,27.80110555755,27.80110555755,186.306141155948
504567.5665,252519.9016,"1","SP","8","1","5",10,46.2229762134,46.2229762134,46.2229762134
504567.5665,252519.9016,"1","SP","8","2","15",10,31.2992666862167,31.2992666862167,77.5222428996167
504567.5665,252519.9016,"1","SP","8","3","30",20,42.5729216080667,42.5729216080667,120.095164507683
504567.5665,252519.9016,"1","SP","8","4","50",20,17.28517870516,17.28517870516,137.380343212843
504567.5665,252519.9016,"1","SP","8","5","83",45,28.588931809155,28.588931809155,165.969275021998
504567.5665,252519.9016,"1","SP","8","6","128",45,28.07236275597,28.07236275597,194.041637777968
504596.11,252483.3319,"1","SP","11","1","5",10,49.6878194005333,49.6878194005333,49.6878194005333
504596.11,252483.3319,"1","SP","11","2","15",10,33.36428994845,33.36428994845,83.0521093489833
504596.11,252483.3319,"1","SP","11","3","30",20,29.50277626126,29.50277626126,112.554885610243
504596.11,252483.3319,"1","SP","11","4","50",20,9.56633819736667,9.56633819736667,122.12122380761
504596.11,252483.3319,"1","SP","11","5","83",45,13.66833426348,13.66833426348,135.78955807109
504596.11,252483.3319,"1","SP","11","6","128",45,42.13029260139,42.13029260139,177.91985067248
504520.3857,252444.4743,"1","SP","12","1","5",10,38.0233282329333,38.0233282329333,38.0233282329333
504520.3857,252444.4743,"1","SP","12","2","15",10,23.57801942914,23.57801942914,61.6013476620733
504520.3857,252444.4743,"1","SP","12","3","30",20,27.0004234532533,27.0004234532533,88.6017711153266
504520.3857,252444.4743,"1","SP","12","4","50",20,18.04741707776,18.04741707776,106.649188193087
504520.3857,252444.4743,"1","SP","12","5","83",45,22.6131888696,22.6131888696,129.262377062687
504520.3857,252444.4743,"1","SP","12","6","128",45,15.35852998848,15.35852998848,144.620907051167
504502.6264,252522.1896,"1","SP","7","1","5",10,69.40098707328,69.40098707328,69.40098707328
504502.6264,252522.1896,"1","SP","7","2","15",10,43.97923675175,43.97923675175,113.38022382503
504502.6264,252522.1896,"1","SP","7","3","30",20,37.98499597856,37.98499597856,151.36521980359
504502.6264,252522.1896,"1","SP","7","4","50",20,20.84917971018,20.84917971018,172.21439951377
504502.6264,252522.1896,"1","SP","7","5","83",45,33.56702815326,33.56702815326,205.78142766703
504502.6264,252522.1896,"1","SP","7","6","128",45,29.8773780985013,29.8773780985013,235.658805765531
504638.6769,252445.4465,"1","SP","14","1","5",10,42.78705409146,42.78705409146,42.78705409146
504638.6769,252445.4465,"1","SP","14","2","15",10,22.9088133735333,22.9088133735333,65.6958674649933
504638.6769,252445.4465,"1","SP","14","3","30",20,38.0922949484,38.0922949484,103.788162413393
504638.6769,252445.4465,"1","SP","14","4","50",20,15.26101298216,15.26101298216,119.049175395553
504638.6769,252445.4465,"1","SP","14","5","83",45,32.13812360127,32.13812360127,151.187298996823
504638.6769,252445.4465,"1","SP","14","6","128",45,30.52289584194,30.52289584194,181.710194838763
504576.8915,252427.7661,"1","SP","16","1","5",10,47.52087249806,47.52087249806,47.52087249806
504576.8915,252427.7661,"1","SP","16","2","15",10,29.31537427587,29.31537427587,76.83624677393
504576.8915,252427.7661,"1","SP","16","3","30",20,48.2890878915067,48.2890878915067,125.125334665437
504576.8915,252427.7661,"1","SP","16","4","50",20,12.07274063898,12.07274063898,137.198075304417
504576.8915,252427.7661,"1","SP","16","5","83",45,36.50320849737,36.50320849737,173.701283801787
504576.8915,252427.7661,"1","SP","16","6","128",45,46.43292564,46.43292564,220.134209441787
504323.9661,252478.6777,"1","SP","18","1","5",10,48.08217778956,48.08217778956,48.08217778956
504323.9661,252478.6777,"1","SP","18","2","15",10,28.9666191401367,28.9666191401367,77.0487969296967
504323.9661,252478.6777,"1","SP","18","3","30",20,42.5277430578,42.5277430578,119.576539987497
504323.9661,252478.6777,"1","SP","18","4","50",20,17.0143731343067,17.0143731343067,136.590913121803
504323.9661,252478.6777,"1","SP","18","5","83",45,42.068207849085,42.068207849085,178.659120970888
504323.9661,252478.6777,"1","SP","18","6","128",45,58.7801012613,58.7801012613,237.439222232188
504395.7246,252473.5041,"1","SP","20","1","5",10,54.9929867951734,54.9929867951734,54.9929867951734
504395.7246,252473.5041,"1","SP","20","2","15",10,34.50219570788,34.50219570788,89.4951825030534
504395.7246,252473.5041,"1","SP","20","3","30",20,44.6096850285333,44.6096850285333,134.104867531587
504395.7246,252473.5041,"1","SP","20","4","50",20,14.8643995682667,14.8643995682667,148.969267099853
504395.7246,252473.5041,"1","SP","20","5","83",45,62.9868005808,62.9868005808,211.956067680653
504395.7246,252473.5041,"1","SP","20","6","128",45,78.8913150765,78.8913150765,290.847382757153
504427.8586,252446.7623,"1","SP","21","1","5",10,49.63412893508,49.63412893508,49.63412893508
504427.8586,252446.7623,"1","SP","21","2","15",10,30.34545281075,30.34545281075,79.97958174583
504427.8586,252446.7623,"1","SP","21","3","30",20,16.4979129566,16.4979129566,96.47749470243
504427.8586,252446.7623,"1","SP","21","4","50",20,13.74056944224,13.74056944224,110.21806414467
504427.8586,252446.7623,"1","SP","21","5","83",45,26.22236356854,26.22236356854,136.44042771321
504427.8586,252446.7623,"1","SP","21","6","128",45,29.63415444792,29.63415444792,166.07458216113
504326.2541,252402.2775,"1","SP","24","1","5",10,65.9595633384167,65.9595633384167,65.9595633384167
504326.2541,252402.2775,"1","SP","24","2","15",10,24.5651523036333,24.5651523036333,90.52471564205
504326.2541,252402.2775,"1","SP","24","3","30",20,39.38646920796,39.38646920796,129.91118485001
504326.2541,252402.2775,"1","SP","24","4","50",20,38.45434719456,38.45434719456,168.36553204457
504326.2541,252402.2775,"1","SP","24","5","83",45,66.3855774387412,66.3855774387412,234.751109483311
504326.2541,252402.2775,"1","SP","24","6","128",45,30.12560756073,30.12560756073,264.876717044041
504366.3814,252320.9881,"1","SP","33","1","5",10,61.3972891871833,61.3972891871833,61.3972891871833
504366.3814,252320.9881,"1","SP","33","2","15",10,39.9897106588,39.9897106588,101.386999845983
504366.3814,252320.9881,"1","SP","33","3","30",20,43.07988924876,43.07988924876,144.466889094743
504366.3814,252320.9881,"1","SP","33","4","50",20,11.0584810933333,11.0584810933333,155.525370188077
504366.3814,252320.9881,"1","SP","33","5","83",45,19.61406596496,19.61406596496,175.139436153037
504366.3814,252320.9881,"1","SP","33","6","128",45,17.0976516,17.0976516,192.237087753037
504422.9984,252314.8745,"1","SP","34","1","5",10,59.89508892542,59.89508892542,59.89508892542
504422.9984,252314.8745,"1","SP","34","2","15",10,46.6866673995467,46.6866673995467,106.581756324967
504422.9984,252314.8745,"1","SP","34","3","30",20,38.2532983322,38.2532983322,144.835054657167
504422.9984,252314.8745,"1","SP","34","4","50",20,25.3963424,25.3963424,170.231397057167
504422.9984,252314.8745,"1","SP","34","5","83",45,19.9627249536,19.9627249536,190.194122010767
504422.9984,252314.8745,"1","SP","34","6","128",45,24.46855602048,24.46855602048,214.662678031247
504275.124,252443.3351,"1","SP","22","1","5",10,60.99956233568,60.99956233568,60.99956233568
504275.124,252443.3351,"1","SP","22","2","15",10,31.7795086332533,31.7795086332533,92.7790709689333
504275.124,252443.3351,"1","SP","22","3","30",20,45.626580380916,45.626580380916,138.405651349849
504275.124,252443.3351,"1","SP","22","4","50",20,9.02594803821334,9.02594803821334,147.431599388063
504275.124,252443.3351,"1","SP","22","5","83",45,17.88256069008,17.88256069008,165.314160078143
504275.124,252443.3351,"1","SP","22","6","128",45,17.28905195922,17.28905195922,182.603212037363
504629.2458,252425.631,"1","SP","17","1","5",10,50.8835350667267,50.8835350667267,50.8835350667267
504629.2458,252425.631,"1","SP","17","2","15",10,26.12172888831,26.12172888831,77.0052639550367
504629.2458,252425.631,"1","SP","17","3","30",20,27.5193985014667,27.5193985014667,104.524662456503
504629.2458,252425.631,"1","SP","17","4","50",20,17.4554391767467,17.4554391767467,121.98010163325
504629.2458,252425.631,"1","SP","17","5","83",45,46.38163752096,46.38163752096,168.36173915421
504629.2458,252425.631,"1","SP","17","6","128",45,30.65883805152,30.65883805152,199.02057720573
504417.6063,252387.0412,"1","SP","27","1","5",10,53.2299242220767,53.2299242220767,53.2299242220767
504417.6063,252387.0412,"1","SP","27","2","15",10,32.4558616887733,32.4558616887733,85.68578591085
504417.6063,252387.0412,"1","SP","27","3","30",20,50.99916810324,50.99916810324,136.68495401409
504417.6063,252387.0412,"1","SP","27","4","50",20,16.1685243575,16.1685243575,152.85347837159
504417.6063,252387.0412,"1","SP","27","5","83",45,32.817176685,32.817176685,185.67065505659
504417.6063,252387.0412,"1","SP","27","6","128",45,28.8934953255,28.8934953255,214.56415038209
504245.8465,252398.3282,"1","SP","30","1","5",10,68.27129816338,68.27129816338,68.27129816338
504245.8465,252398.3282,"1","SP","30","2","15",10,37.26692261257,37.26692261257,105.53822077595
504245.8465,252398.3282,"1","SP","30","3","30",20,41.92123077982,41.92123077982,147.45945155577
504245.8465,252398.3282,"1","SP","30","4","50",20,9.4186812,9.4186812,156.87813275577
504245.8465,252398.3282,"1","SP","30","5","83",45,27.4867413174,27.4867413174,184.36487407317
504245.8465,252398.3282,"1","SP","30","6","128",45,66.5555359203,66.5555359203,250.92040999347
504384.9405,252370.9596,"1","SP","26","1","5",10,58.1031302476,58.1031302476,58.1031302476
504384.9405,252370.9596,"1","SP","26","2","15",10,31.61477145198,31.61477145198,89.71790169958
504384.9405,252370.9596,"1","SP","26","3","30",20,51.3219994745,51.3219994745,141.03990117408
504384.9405,252370.9596,"1","SP","26","4","50",20,12.951576972,12.951576972,153.99147814608
504384.9405,252370.9596,"1","SP","26","5","83",45,19.36936915875,19.36936915875,173.36084730483
504384.9405,252370.9596,"1","SP","26","6","128",45,25.99876460025,25.99876460025,199.35961190508
504493.189,252365.545,"2","FW","1","1","5",10,50.3182230849322,50.3182230849322,50.3182230849322
504493.189,252365.545,"2","FW","1","2","15",10,28.8164167133333,28.8164167133333,79.1346397982655
504493.189,252365.545,"2","FW","1","3","30",20,44.4382784825956,44.4382784825956,123.572918280861
504493.189,252365.545,"2","FW","1","4","50",20,34.77825674624,34.77825674624,158.351175027101
504493.189,252365.545,"2","FW","1","5","83",45,36.38816347488,36.38816347488,194.739338501981
504493.189,252365.545,"2","FW","1","6","128",45,23.08184387376,23.08184387376,217.821182375741
504543.189,252365.545,"2","FW","2","1","5",10,51.0437773574198,51.0437773574198,51.0437773574198
504543.189,252365.545,"2","FW","2","2","15",10,32.0381949552,32.0381949552,83.0819723126198
504543.189,252365.545,"2","FW","2","3","30",20,42.88890091796,42.88890091796,125.97087323058
504543.189,252365.545,"2","FW","2","4","50",20,36.9411859238333,36.9411859238333,162.912059154413
504543.189,252365.545,"2","FW","2","5","83",45,24.851913813375,24.851913813375,187.763972967788
504543.189,252365.545,"2","FW","2","6","128",45,18.942316125,18.942316125,206.706289092788
504643.189,252365.545,"2","FW","3","1","5",10,38.38326213136,38.38326213136,38.38326213136
504643.189,252365.545,"2","FW","3","2","15",10,17.4511810515,17.4511810515,55.83444318286
504643.189,252365.545,"2","FW","3","3","30",20,30.37439532942,30.37439532942,86.20883851228
504643.189,252365.545,"2","FW","3","4","50",20,9.42035301717334,9.42035301717334,95.6291915294533
504643.189,252365.545,"2","FW","3","5","83",45,27.6422964672,27.6422964672,123.271487996653
504643.189,252365.545,"2","FW","3","6","128",45,46.39837514112,46.39837514112,169.669863137773
504493.189,252315.545,"2","FW","4","1","5",10,49.6320888978867,49.6320888978867,49.6320888978867
504493.189,252315.545,"2","FW","4","2","15",10,25.30707216048,25.30707216048,74.9391610583667
504493.189,252315.545,"2","FW","4","3","30",20,40.47375627438,40.47375627438,115.412917332747
504493.189,252315.545,"2","FW","4","4","50",20,22.3814243722333,22.3814243722333,137.79434170498
504493.189,252315.545,"2","FW","4","5","83",45,19.25367213363,19.25367213363,157.04801383861
504493.189,252315.545,"2","FW","4","6","128",45,30.640515615,30.640515615,187.68852945361
504543.189,252315.545,"2","FW","5","1","5",10,48.760912273225,48.760912273225,48.760912273225
504543.189,252315.545,"2","FW","5","2","15",10,29.98823097734,29.98823097734,78.749143250565
504543.189,252315.545,"2","FW","5","3","30",20,33.2973404210773,33.2973404210773,112.046483671642
504543.189,252315.545,"2","FW","5","4","50",20,16.6573420915733,16.6573420915733,128.703825763216
504543.189,252315.545,"2","FW","5","5","83",45,57.07017002874,57.07017002874,185.773995791956
504543.189,252315.545,"2","FW","5","6","128",45,14.02525151346,14.02525151346,199.799247305416
504593.189,252315.545,"2","FW","6","1","5",10,40.9756776512533,40.9756776512533,40.9756776512533
504593.189,252315.545,"2","FW","6","2","15",10,26.87863975,26.87863975,67.8543174012533
504593.189,252315.545,"2","FW","6","3","30",20,39.1625075549333,39.1625075549333,107.016824956187
504593.189,252315.545,"2","FW","6","4","50",20,12.76707445024,12.76707445024,119.783899406427
504593.189,252315.545,"2","FW","6","5","83",45,33.294947719935,33.294947719935,153.078847126362
504593.189,252315.545,"2","FW","6","6","128",45,18.9826964745,18.9826964745,172.061543600862
504643.189,252315.545,"2","FW","7","1","5",10,42.1326586886933,42.1326586886933,42.1326586886933
504643.189,252315.545,"2","FW","7","2","15",10,23.25263732656,23.25263732656,65.3852960152533
504643.189,252315.545,"2","FW","7","3","30",20,35.73861888672,35.73861888672,101.123914901973
504643.189,252315.545,"2","FW","7","4","50",20,14.6308772420267,14.6308772420267,115.754792144
504643.189,252315.545,"2","FW","7","5","83",45,40.043984594835,40.043984594835,155.798776738835
504643.189,252315.545,"2","FW","7","6","128",45,40.657517256255,40.657517256255,196.45629399509
504493.189,252265.545,"2","FW","8","1","5",10,59.5435539400443,59.5435539400443,59.5435539400443
504493.189,252265.545,"2","FW","8","2","15",10,35.0571466661867,35.0571466661867,94.600700606231
504493.189,252265.545,"2","FW","8","3","30",20,61.4067003116,61.4067003116,156.007400917831
504493.189,252265.545,"2","FW","8","4","50",20,12.7807363547733,12.7807363547733,168.788137272604
504493.189,252265.545,"2","FW","8","5","83",45,21.9021998403,21.9021998403,190.690337112904
504493.189,252265.545,"2","FW","8","6","128",45,18.53735496,18.53735496,209.227692072904
504543.189,252265.545,"2","FW","9","1","5",10,50.12400830013,50.12400830013,50.12400830013
504543.189,252265.545,"2","FW","9","2","15",10,31.6642488033333,31.6642488033333,81.7882571034633
504543.189,252265.545,"2","FW","9","3","30",20,25.2426097051333,25.2426097051333,107.030866808597
504543.189,252265.545,"2","FW","9","4","50",20,30.5084356353,30.5084356353,137.539302443897
504543.189,252265.545,"2","FW","9","5","83",45,28.17896345775,28.17896345775,165.718265901647
504543.189,252265.545,"2","FW","9","6","128",45,22.22677665,22.22677665,187.945042551647
504593.189,252265.545,"2","FW","10","1","5",10,50.29496506069,50.29496506069,50.29496506069
504593.189,252265.545,"2","FW","10","2","15",10,30.2338610993,30.2338610993,80.52882615999
504593.189,252265.545,"2","FW","10","3","30",20,46.483190423172,46.483190423172,127.012016583162
504593.189,252265.545,"2","FW","10","4","50",20,15.44989216644,15.44989216644,142.461908749602
504593.189,252265.545,"2","FW","10","5","83",45,26.83013009346,26.83013009346,169.292038843062
504593.189,252265.545,"2","FW","10","6","128",45,25.421465925,25.421465925,194.713504768062
504643.189,252265.545,"2","FW","11","1","5",10,38.2944795405133,38.2944795405133,38.2944795405133
504643.189,252265.545,"2","FW","11","2","15",10,23.63527250386,23.63527250386,61.9297520443733
504643.189,252265.545,"2","FW","11","3","30",20,43.10324961992,43.10324961992,105.033001664293
504643.189,252265.545,"2","FW","11","4","50",20,10.851674257224,10.851674257224,115.884675921517
504643.189,252265.545,"2","FW","11","5","83",45,47.9211040235498,47.9211040235498,163.805779945067
504643.189,252265.545,"2","FW","11","6","128",45,47.2995659937083,47.2995659937083,211.105345938775
504493.189,252215.545,"2","FW","12","1","5",10,47.8256793566667,47.8256793566667,47.8256793566667
504493.189,252215.545,"2","FW","12","2","15",10,38.6556829666667,38.6556829666667,86.4813623233334
504493.189,252215.545,"2","FW","12","3","30",20,48.12339060144,48.12339060144,134.604752924773
504493.189,252215.545,"2","FW","12","4","50",20,31.61806603606,31.61806603606,166.222818960833
504493.189,252215.545,"2","FW","12","5","83",45,19.482070755,19.482070755,185.704889715833
504493.189,252215.545,"2","FW","12","6","128",45,34.0823755125,34.0823755125,219.787265228333
504543.189,252215.545,"2","FW","13","1","5",10,61.12122897167,61.12122897167,61.12122897167
504543.189,252215.545,"2","FW","13","2","15",10,36.7716920692,36.7716920692,97.89292104087
504543.189,252215.545,"2","FW","13","3","30",20,28.72778743144,28.72778743144,126.62070847231
504543.189,252215.545,"2","FW","13","4","50",20,14.5742581936267,14.5742581936267,141.194966665937
504543.189,252215.545,"2","FW","13","5","83",45,26.15373772668,26.15373772668,167.348704392617
504543.189,252215.545,"2","FW","13","6","128",45,22.9468482,22.9468482,190.295552592617
504593.189,252215.545,"2","FW","14","1","5",10,42.83003778735,42.83003778735,42.83003778735
504593.189,252215.545,"2","FW","14","2","15",10,22.62207341681,22.62207341681,65.45211120416
504593.189,252215.545,"2","FW","14","3","30",20,15.61546286718,15.61546286718,81.06757407134
504593.189,252215.545,"2","FW","14","4","50",20,14.7026291923867,14.7026291923867,95.7702032637267
504593.189,252215.545,"2","FW","14","5","83",45,25.50041149653,25.50041149653,121.270614760257
504593.189,252215.545,"2","FW","14","6","128",45,24.50478360069,24.50478360069,145.775398360947
504643.189,252215.545,"2","FW","15","1","5",10,35.1585103536333,35.1585103536333,35.1585103536333
504643.189,252215.545,"2","FW","15","2","15",10,23.7077014985067,23.7077014985067,58.86621185214
504643.189,252215.545,"2","FW","15","3","30",20,35.4513561627067,35.4513561627067,94.3175680148467
504643.189,252215.545,"2","FW","15","4","50",20,16.35902214336,16.35902214336,110.676590158207
504643.189,252215.545,"2","FW","15","5","83",45,32.57361422082,32.57361422082,143.250204379027
504643.189,252215.545,"2","FW","15","6","128",45,27.10016466111,27.10016466111,170.350369040137
504543.189,252165.545,"2","FW","16","1","5",10,44.0758599027,44.0758599027,44.0758599027
504543.189,252165.545,"2","FW","16","2","15",10,26.2344815328267,26.2344815328267,70.3103414355267
504543.189,252165.545,"2","FW","16","3","30",20,32.3218036368,32.3218036368,102.632145072327
504543.189,252165.545,"2","FW","16","4","50",20,11.0665477380267,11.0665477380267,113.698692810353
504543.189,252165.545,"2","FW","16","5","83",45,13.633013835,13.633013835,127.331706645353
504543.189,252165.545,"2","FW","16","6","128",45,12.09414802911,12.09414802911,139.425854674463
504593.189,252165.545,"2","FW","17","1","5",10,34.24964759845,34.24964759845,34.24964759845
504593.189,252165.545,"2","FW","17","2","15",10,21.1679836886667,21.1679836886667,55.4176312871167
504593.189,252165.545,"2","FW","17","3","30",20,32.9414495184267,32.9414495184267,88.3590808055434
504593.189,252165.545,"2","FW","17","4","50",20,17.6532681964,17.6532681964,106.012349001943
504593.189,252165.545,"2","FW","17","5","83",45,17.2818102078,17.2818102078,123.294159209743
504593.189,252165.545,"2","FW","17","6","128",45,17.8175052,17.8175052,141.111664409743
504463.189,252185.545,"2","FW","18","1","5",10,50.50300371696,50.50300371696,50.50300371696
504463.189,252185.545,"2","FW","18","2","15",10,29.3233476504733,29.3233476504733,79.8263513674333
504463.189,252185.545,"2","FW","18","3","30",20,39.31299135316,39.31299135316,119.139342720593
504463.189,252185.545,"2","FW","18","4","50",20,29.33988379656,29.33988379656,148.479226517153
504463.189,252185.545,"2","FW","18","5","83",45,41.75402832,41.75402832,190.233254837153
504463.189,252185.545,"2","FW","18","6","128",45,63.035984565,63.035984565,253.269239402153
504592.5753,252365.1894,"2","FW","19","1","5",10,47.4255255071633,47.4255255071633,47.4255255071633
504592.5753,252365.1894,"2","FW","19","2","15",10,26.09128655513,26.09128655513,73.5168120622933
504592.5753,252365.1894,"2","FW","19","3","30",20,36.9198144794253,36.9198144794253,110.436626541719
504592.5753,252365.1894,"2","FW","19","4","50",20,13.0382830666667,13.0382830666667,123.474909608385
504592.5753,252365.1894,"2","FW","19","5","83",45,29.96605395,29.96605395,153.440963558385
504592.5753,252365.1894,"2","FW","19","6","128",45,29.78607765,29.78607765,183.227041208385
504462.9078,252135.545,"2","FW","20","1","5",10,41.3887502928783,41.3887502928783,41.3887502928783
504462.9078,252135.545,"2","FW","20","2","15",10,22.29339960514,22.29339960514,63.6821498980183
504462.9078,252135.545,"2","FW","20","3","30",20,18.3254179547867,18.3254179547867,82.007567852805
504462.9078,252135.545,"2","FW","20","4","50",20,13.3311355899333,13.3311355899333,95.3387034427383
504462.9078,252135.545,"2","FW","20","5","83",45,51.63997058988,51.63997058988,146.978674032618
504462.9078,252135.545,"2","FW","20","6","128",45,49.16915967633,49.16915967633,196.147833708948
504283.189,252425.545,"1","PA","25","1","5",10,68.38785013541,68.38785013541,68.38785013541
504283.189,252425.545,"1","PA","25","2","15",10,39.4458535631822,39.4458535631822,107.833703698592
504283.189,252425.545,"1","PA","25","3","30",20,77.51098184,77.51098184,185.344685538592
504283.189,252425.545,"1","PA","25","4","50",20,15.8732885718,15.8732885718,201.217974110392
504283.189,252425.545,"1","PA","25","5","83",45,24.83669628,24.83669628,226.054670390392
504283.189,252425.545,"1","PA","25","6","128",45,25.01667234,25.01667234,251.071342730392
504553.189,252515.545,"1","PA","13","1","5",10,61.63432405691,61.63432405691,61.63432405691
504553.189,252515.545,"1","PA","13","2","15",10,32.5376085930133,32.5376085930133,94.1719326499233
504553.189,252515.545,"1","PA","13","3","30",20,48.32845656912,48.32845656912,142.500389219043
504553.189,252515.545,"1","PA","13","4","50",20,29.52889796256,29.52889796256,172.029287181603
504553.189,252515.545,"1","PA","13","5","83",45,65.57810730624,65.57810730624,237.607394487843
504553.189,252515.545,"1","PA","13","6","128",45,52.88405656374,52.88405656374,290.491451051583
504553.189,252575.545,"1","PA","7","1","5",10,50.6497122522667,50.6497122522667,50.6497122522667
504553.189,252575.545,"1","PA","7","2","15",10,32.2326122344133,32.2326122344133,82.88232448668
504553.189,252575.545,"1","PA","7","3","30",20,32.13986132204,32.13986132204,115.02218580872
504553.189,252575.545,"1","PA","7","4","50",20,23.35514360304,23.35514360304,138.37732941176
504553.189,252575.545,"1","PA","7","5","83",45,32.12367617016,32.12367617016,170.50100558192
504553.189,252575.545,"1","PA","7","6","128",45,20.73414864672,20.73414864672,191.23515422864
504523.189,252575.545,"1","PA","6","1","5",10,55.61882377968,55.61882377968,55.61882377968
504523.189,252575.545,"1","PA","6","2","15",10,31.87497759739,31.87497759739,87.49380137707
504523.189,252575.545,"1","PA","6","3","30",20,39.0960613191,39.0960613191,126.58986269617
504523.189,252575.545,"1","PA","6","4","50",20,19.47876846312,19.47876846312,146.06863115929
504523.189,252575.545,"1","PA","6","5","83",45,16.00996640544,16.00996640544,162.07859756473
504523.189,252575.545,"1","PA","6","6","128",45,12.02794710138,12.02794710138,174.10654466611
